%YAML 1.1
%TAG !u! tag:unity3d.com,2011:
--- !u!687078895 &4343727234628468602
SpriteAtlas:
  m_ObjectHideFlags: 0
  m_CorrespondingSourceObject: {fileID: 0}
  m_PrefabInstance: {fileID: 0}
  m_PrefabAsset: {fileID: 0}
  m_Name: UI_Atlas_2
  m_EditorData:
    serializedVersion: 2
    textureSettings:
      serializedVersion: 2
      anisoLevel: 1
      compressionQuality: 50
      maxTextureSize: 2048
      textureCompression: 0
      filterMode: 1
      generateMipMaps: 0
      readable: 0
      crunchedCompression: 0
      sRGB: 1
    platformSettings:
    - serializedVersion: 3
      m_BuildTarget: DefaultTexturePlatform
      m_MaxTextureSize: 4096
      m_ResizeAlgorithm: 0
      m_TextureFormat: -1
      m_TextureCompression: 1
      m_CompressionQuality: 50
      m_CrunchedCompression: 1
      m_AllowsAlphaSplitting: 0
      m_Overridden: 0
      m_AndroidETC2FallbackOverride: 0
      m_ForceMaximumCompressionQuality_BC6H_BC7: 0
    packingSettings:
      serializedVersion: 2
      padding: 4
      blockOffset: 1
      allowAlphaSplitting: 0
      enableRotation: 1
      enableTightPacking: 0
    variantMultiplier: 1
    packables:
    - {fileID: 102900000, guid: 36e1be40b2e44eb488a6cd699cc40411, type: 3}
    - {fileID: 2800000, guid: 441c4838212dabf41a2ad3e2c781bf29, type: 3}
    - {fileID: 2800000, guid: d77d2c671eb10414ab67dc2aafdf68b0, type: 3}
    - {fileID: 102900000, guid: 4ded99773bfb33042a75d4bc615789c1, type: 3}
    totalSpriteSurfaceArea: 7564722
    bindAsDefault: 1
  m_MasterAtlas: {fileID: 0}
  m_PackedSprites:
  - {fileID: 21300000, guid: 2f8a0210eb3daa14fbb55ed00b5a3595, type: 3}
  - {fileID: 21300000, guid: c443d6408b754b348bc3216634e18d52, type: 3}
  - {fileID: 21300000, guid: c8589940c9031c64abcd2f14abb5bbe4, type: 3}
  - {fileID: 21300000, guid: c7bf21a03fcfebc4ca23f90c27157fd2, type: 3}
  - {fileID: 21300000, guid: c0e265314d400ec4d92ab05c04e6621c, type: 3}
  - {fileID: 21300000, guid: 09a770618e65d98428bba975e7ce4855, type: 3}
  - {fileID: 21300000, guid: 7616cf71da4d14a49aedd5841772fb19, type: 3}
  - {fileID: 21300000, guid: 061666c148498a34d878313b880eabaa, type: 3}
  - {fileID: 21300000, guid: 7bad2ec13013d014e9d9d82c5d5fe39a, type: 3}
  - {fileID: 21300000, guid: 9cf4770259de57a4cbb77d9091fea307, type: 3}
  - {fileID: 21300000, guid: b91f69229073dc3478fd40d1be797683, type: 3}
  - {fileID: 21300000, guid: f583a0327ce4c2045bea3284af7489f4, type: 3}
  - {fileID: 21300000, guid: 8ea3e052abd8f6e469cc4e6b62bf3d5a, type: 3}
  - {fileID: 21300000, guid: 8f407d52d036ccb49a7b256c74bb4b77, type: 3}
  - {fileID: 21300000, guid: 674f0262126d4084f8a30136e4fb62f1, type: 3}
  - {fileID: 21300000, guid: f0ca58925bfe0604d98335b95e735bef, type: 3}
  - {fileID: 21300000, guid: d53ccb928e6d82042a1e504798aa3091, type: 3}
  - {fileID: 21300000, guid: dc51db2383f0bba4491847dabd417dc9, type: 3}
  - {fileID: 21300000, guid: 9f0260f3d0587ee47a9244ca04a2b287, type: 3}
  - {fileID: 21300000, guid: 91f931147cc0c2e4b9a4524729ce79f1, type: 3}
  - {fileID: 21300000, guid: c98c8a44d07539d4fb8fc3e0509b36e2, type: 3}
  - {fileID: 21300000, guid: 29c37d94498a4974e81039e252abc28c, type: 3}
  - {fileID: 21300000, guid: c1d877a4cbe497f4fa785a104a0aacf4, type: 3}
  - {fileID: 21300000, guid: 0370f1053b8e09c4dae0d1980cfa4bda, type: 3}
  - {fileID: 21300000, guid: 86b0b715a06653248b5fe6b82e3c74e2, type: 3}
  - {fileID: 21300000, guid: f4b71a15550220f4ba1e81db191e16da, type: 3}
  - {fileID: 21300000, guid: 971e3565c974e0446abdafd11aa52d51, type: 3}
  - {fileID: 21300000, guid: 6ba9fa65514bfff44b6f956cd2df2dba, type: 3}
  - {fileID: 21300000, guid: c69ecc75505fe96479639024c1a5c06c, type: 3}
  - {fileID: 21300000, guid: b2a042b55b2e9f649b7e49172b3cc9eb, type: 3}
  - {fileID: 21300000, guid: 06b24ec5a882a4742802e02313431d73, type: 3}
  - {fileID: 21300000, guid: c827bae5f78f8184daa714c1cdaf1c87, type: 3}
  - {fileID: 21300000, guid: 89545ef5100be5241819d1e1c04e8a75, type: 3}
  - {fileID: 21300000, guid: 19609a164d874694fab9eb342b0ce117, type: 3}
  - {fileID: 21300000, guid: 7dfcd2266bf1acd41b614030d948e62b, type: 3}
  - {fileID: 21300000, guid: 6a284826ff4da0649b190b33ca8a0ff8, type: 3}
  - {fileID: 21300000, guid: fd6d9c26009153a42910bdef5ebd9222, type: 3}
  - {fileID: 21300000, guid: cdb5453697f5aa14d94163c78ea0cae7, type: 3}
  - {fileID: 21300000, guid: 4c885e469ab8efd43ad12f610fb7f483, type: 3}
  - {fileID: 21300000, guid: 0cab365625892994cb9bc1397d46eda5, type: 3}
  - {fileID: 21300000, guid: 5bae2076b47cc9041887c9dd0b59a314, type: 3}
  - {fileID: 21300000, guid: fe3560d6c3454054c97b4be3d9db315e, type: 3}
  - {fileID: 21300000, guid: 8b9436e6de416d941b27a91b8efc90e7, type: 3}
  - {fileID: 21300000, guid: cd24c907e5b86604a873533ca9b66c5f, type: 3}
  - {fileID: 21300000, guid: ff95c907f4d54474b8e8e7feb7411d94, type: 3}
  - {fileID: 21300000, guid: ef5677377a3d4a640b780f5a59be8344, type: 3}
  - {fileID: 21300000, guid: d77d2c671eb10414ab67dc2aafdf68b0, type: 3}
  - {fileID: 21300000, guid: 43704ab7cd94ad04288767073a88645d, type: 3}
  - {fileID: 21300000, guid: 8a3143f7639f80d49bdbcc6a71a6fb22, type: 3}
  - {fileID: 21300000, guid: 7b51420807590e34aaa131b712fb7f4d, type: 3}
  - {fileID: 21300000, guid: 441c4838212dabf41a2ad3e2c781bf29, type: 3}
  - {fileID: 21300000, guid: d4b44d88fbdd2ab4dbf98301b86f9dec, type: 3}
  - {fileID: 21300000, guid: f8eb43d8c610f9b4591582fb19e5c6cc, type: 3}
  - {fileID: 21300000, guid: e7e60ae80a3940c45b26da5b6c87ff3b, type: 3}
  - {fileID: 21300000, guid: ff3d2129bc3289340832ebd2026bc599, type: 3}
  - {fileID: 21300000, guid: 7ad59f598871b374eb944fcaf04690e4, type: 3}
  - {fileID: 21300000, guid: 5d6761c9e8e01604ab76f8b61cde5bf4, type: 3}
  - {fileID: 21300000, guid: f06c7ef98eefbe749a382cf0e735073b, type: 3}
  - {fileID: 21300000, guid: e6bf5d1a105a0fc4e9872a242c22e918, type: 3}
  - {fileID: 21300000, guid: 2dd1b94a01c84ed4f9814fdb6f9f14b9, type: 3}
  - {fileID: 21300000, guid: 4b7ff06af26bdd643856422acc11b098, type: 3}
  - {fileID: 21300000, guid: 9575a86a4a5c41b498adc141c4e1ccfb, type: 3}
  - {fileID: 21300000, guid: e26ad89a1cac26444891744e38ca6c2c, type: 3}
  - {fileID: 21300000, guid: a74f3a9a805423149b0b27e85372050f, type: 3}
  - {fileID: 21300000, guid: d0fc7d9a05f76f047bfef765f8fef6c0, type: 3}
  - {fileID: 21300000, guid: 26e93f1b46496e646b00d9343e5f8c2b, type: 3}
  - {fileID: 21300000, guid: ea0bd07b07d7cfc40bdbbd941a472167, type: 3}
  - {fileID: 21300000, guid: d150af9b87cb2b34885afa9278bc83d1, type: 3}
  - {fileID: 21300000, guid: a3fc0bcb934e09f4ba735e9f243db57a, type: 3}
  - {fileID: 21300000, guid: 8fbf7beb4f943d5418c4aba12d932df1, type: 3}
  - {fileID: 21300000, guid: 7ea6510cd5ee2b24e99527aa023407bd, type: 3}
  - {fileID: 21300000, guid: 1eff644c356c7d14196cb731ea974421, type: 3}
  - {fileID: 21300000, guid: 4a63917cd4e101b4dafd300832557c02, type: 3}
  - {fileID: 21300000, guid: b97fe49c388794f4fb9d063137fb0321, type: 3}
  - {fileID: 21300000, guid: dc70d0acef150c54894446d1bc76112b, type: 3}
  - {fileID: 21300000, guid: 477740bcf8d832643b7c18af1a0e2ddc, type: 3}
  - {fileID: 21300000, guid: 6248dadcc62317149a22e3e1d43bc783, type: 3}
  - {fileID: 21300000, guid: 2dbb8eec0c21a2c4ca8768484a156139, type: 3}
  - {fileID: 21300000, guid: 2f91962de13967842bde2ae32e7e8720, type: 3}
  - {fileID: 21300000, guid: be24436d3eb817a49a321385fe634e66, type: 3}
  - {fileID: 21300000, guid: d203e6cd3b05c264293acf6f8a810986, type: 3}
  - {fileID: 21300000, guid: 27779c8ebac5b1d48b2f9ece4f409c25, type: 3}
  - {fileID: 21300000, guid: 1a452b5fce99a634ba270a188b1dae37, type: 3}
  - {fileID: 21300000, guid: 4927c3df531b1d747a15504d73947e41, type: 3}
  - {fileID: 21300000, guid: 6f1ccefffb00b064bb17c9aee94894d8, type: 3}
  m_PackedSpriteNamesToIndex:
  - bar
  - sound off 1
  - rocket_00006
  - 6 1
  - ufo_00049
  - bar
  - ufo_00018
  - rocket_00003
  - rocket_00019
  - ufo_00016
  - 9 1
  - ufo_00046
  - Hiz
  - rocket_00020
  - rocket_00017
  - rocket_00013
  - rocket_00008
  - Shape 41
  - rocket_00009
  - 10 1
  - 1 1
  - bg
  - ufo_00039
  - EVET 1
  - rocket_00011
  - rocket_00021
  - ufo_00021
  - rocket_00007
  - rocket_00018
  - ufo_00037
  - rocket_00014
  - ufo_00034
  - ufo_00048
  - info 1
  - sound on 1
  - rocket_00004
  - 4 1
  - ufo_00032
  - HAYIR 1
  - stop 1
  - ufo_00028
  - 8 1
  - ufo_00042
  - rocket_00016
  - panel_right 1
  - 3 1
  - pngegg (2)
  - ufo_00014
  - rigt 1
  - ufo_00027
  - pngegg
  - 2 1
  - ufo_00023
  - rocket_00010
  - 7 1
  - ufo_00030
  - 11 1
  - rocket_00005
  - panel_left
  - ufo_00009
  - x 1
  - replay 1
  - ufo_00020
  - "s\xFCre"
  - left 1
  - ufo_00041
  - 3 2
  - CIKIS 1
  - tumu 1
  - ufo_00035
  - home 1
  - Yakit 2
  - rocket_00015
  - ufo_00013
  - 5 1
  - ufo_00011
  - ufo_00025
  - bg
  - ufo_00044
  - Skor _
  - 12 1
  - rocket_00012
  - Shape 40
  - 2
  - 1
  m_Tag: UI_Atlas_2
  m_IsVariant: 0
