%YAML 1.1
%TAG !u! tag:unity3d.com,2011:
--- !u!74 &7400000
AnimationClip:
  m_ObjectHideFlags: 0
  m_CorrespondingSourceObject: {fileID: 0}
  m_PrefabInstance: {fileID: 0}
  m_PrefabAsset: {fileID: 0}
  m_Name: RocketFire_Anim
  serializedVersion: 6
  m_Legacy: 0
  m_Compressed: 0
  m_UseHighQualityCurve: 1
  m_RotationCurves: []
  m_CompressedRotationCurves: []
  m_EulerCurves: []
  m_PositionCurves: []
  m_ScaleCurves: []
  m_FloatCurves: []
  m_PPtrCurves:
  - curve:
    - time: 0
      value: {fileID: 7534063563150850477, guid: bb9d8fbd7beb213459e86b79613bc6b7,
        type: 3}
    - time: 0.016666668
      value: {fileID: 4199896043425211745, guid: bb9d8fbd7beb213459e86b79613bc6b7,
        type: 3}
    - time: 0.033333335
      value: {fileID: -2832306921030917737, guid: bb9d8fbd7beb213459e86b79613bc6b7,
        type: 3}
    - time: 0.05
      value: {fileID: 8940105670248845049, guid: bb9d8fbd7beb213459e86b79613bc6b7,
        type: 3}
    - time: 0.06666667
      value: {fileID: 8300987396572639975, guid: bb9d8fbd7beb213459e86b79613bc6b7,
        type: 3}
    - time: 0.083333336
      value: {fileID: 3942899556178207308, guid: bb9d8fbd7beb213459e86b79613bc6b7,
        type: 3}
    - time: 0.1
      value: {fileID: 6843307035432789523, guid: bb9d8fbd7beb213459e86b79613bc6b7,
        type: 3}
    - time: 0.11666667
      value: {fileID: -8766565775628743107, guid: bb9d8fbd7beb213459e86b79613bc6b7,
        type: 3}
    - time: 0.13333334
      value: {fileID: 2283806389926655411, guid: bb9d8fbd7beb213459e86b79613bc6b7,
        type: 3}
    - time: 0.15
      value: {fileID: -8283754828154942778, guid: bb9d8fbd7beb213459e86b79613bc6b7,
        type: 3}
    - time: 0.16666667
      value: {fileID: -3235721633121338661, guid: bb9d8fbd7beb213459e86b79613bc6b7,
        type: 3}
    attribute: m_Sprite
    path: 
    classID: 114
    script: {fileID: 11500000, guid: fe87c0e1cc204ed48ad3b37840f39efc, type: 3}
  m_SampleRate: 60
  m_WrapMode: 0
  m_Bounds:
    m_Center: {x: 0, y: 0, z: 0}
    m_Extent: {x: 0, y: 0, z: 0}
  m_ClipBindingConstant:
    genericBindings:
    - serializedVersion: 2
      path: 0
      attribute: 2015549526
      script: {fileID: 11500000, guid: fe87c0e1cc204ed48ad3b37840f39efc, type: 3}
      typeID: 114
      customType: 0
      isPPtrCurve: 1
    pptrCurveMapping:
    - {fileID: 7534063563150850477, guid: bb9d8fbd7beb213459e86b79613bc6b7, type: 3}
    - {fileID: 4199896043425211745, guid: bb9d8fbd7beb213459e86b79613bc6b7, type: 3}
    - {fileID: -2832306921030917737, guid: bb9d8fbd7beb213459e86b79613bc6b7, type: 3}
    - {fileID: 8940105670248845049, guid: bb9d8fbd7beb213459e86b79613bc6b7, type: 3}
    - {fileID: 8300987396572639975, guid: bb9d8fbd7beb213459e86b79613bc6b7, type: 3}
    - {fileID: 3942899556178207308, guid: bb9d8fbd7beb213459e86b79613bc6b7, type: 3}
    - {fileID: 6843307035432789523, guid: bb9d8fbd7beb213459e86b79613bc6b7, type: 3}
    - {fileID: -8766565775628743107, guid: bb9d8fbd7beb213459e86b79613bc6b7, type: 3}
    - {fileID: 2283806389926655411, guid: bb9d8fbd7beb213459e86b79613bc6b7, type: 3}
    - {fileID: -8283754828154942778, guid: bb9d8fbd7beb213459e86b79613bc6b7, type: 3}
    - {fileID: -3235721633121338661, guid: bb9d8fbd7beb213459e86b79613bc6b7, type: 3}
  m_AnimationClipSettings:
    serializedVersion: 2
    m_AdditiveReferencePoseClip: {fileID: 0}
    m_AdditiveReferencePoseTime: 0
    m_StartTime: 0
    m_StopTime: 0.18333334
    m_OrientationOffsetY: 0
    m_Level: 0
    m_CycleOffset: 0
    m_HasAdditiveReferencePose: 0
    m_LoopTime: 1
    m_LoopBlend: 0
    m_LoopBlendOrientation: 0
    m_LoopBlendPositionY: 0
    m_LoopBlendPositionXZ: 0
    m_KeepOriginalOrientation: 0
    m_KeepOriginalPositionY: 1
    m_KeepOriginalPositionXZ: 0
    m_HeightFromFeet: 0
    m_Mirror: 0
  m_EditorCurves: []
  m_EulerEditorCurves: []
  m_HasGenericRootTransform: 0
  m_HasMotionFloatCurves: 0
  m_Events: []
