%YAML 1.1
%TAG !u! tag:unity3d.com,2011:
--- !u!74 &7400000
AnimationClip:
  m_ObjectHideFlags: 0
  m_CorrespondingSourceObject: {fileID: 0}
  m_PrefabInstance: {fileID: 0}
  m_PrefabAsset: {fileID: 0}
  m_Name: RocketSliderAnim
  serializedVersion: 6
  m_Legacy: 0
  m_Compressed: 0
  m_UseHighQualityCurve: 1
  m_RotationCurves: []
  m_CompressedRotationCurves: []
  m_EulerCurves: []
  m_PositionCurves: []
  m_ScaleCurves: []
  m_FloatCurves: []
  m_PPtrCurves:
  - curve:
    - time: 0
      value: {fileID: 21300000, guid: 061666c148498a34d878313b880eabaa, type: 3}
    - time: 0.016666668
      value: {fileID: 21300000, guid: 6a284826ff4da0649b190b33ca8a0ff8, type: 3}
    - time: 0.033333335
      value: {fileID: 21300000, guid: c8589940c9031c64abcd2f14abb5bbe4, type: 3}
    - time: 0.05
      value: {fileID: 21300000, guid: d53ccb928e6d82042a1e504798aa3091, type: 3}
    - time: 0.06666667
      value: {fileID: 21300000, guid: e7e60ae80a3940c45b26da5b6c87ff3b, type: 3}
    - time: 0.083333336
      value: {fileID: 21300000, guid: 27779c8ebac5b1d48b2f9ece4f409c25, type: 3}
    - time: 0.1
      value: {fileID: 21300000, guid: f0ca58925bfe0604d98335b95e735bef, type: 3}
    - time: 0.11666667
      value: {fileID: 21300000, guid: 4a63917cd4e101b4dafd300832557c02, type: 3}
    - time: 0.13333334
      value: {fileID: 21300000, guid: 674f0262126d4084f8a30136e4fb62f1, type: 3}
    - time: 0.15
      value: {fileID: 21300000, guid: 7bad2ec13013d014e9d9d82c5d5fe39a, type: 3}
    - time: 0.16666667
      value: {fileID: 21300000, guid: f4b71a15550220f4ba1e81db191e16da, type: 3}
    attribute: m_Sprite
    path: 
    classID: 114
    script: {fileID: 11500000, guid: fe87c0e1cc204ed48ad3b37840f39efc, type: 3}
  m_SampleRate: 60
  m_WrapMode: 0
  m_Bounds:
    m_Center: {x: 0, y: 0, z: 0}
    m_Extent: {x: 0, y: 0, z: 0}
  m_ClipBindingConstant:
    genericBindings:
    - serializedVersion: 2
      path: 0
      attribute: 2015549526
      script: {fileID: 11500000, guid: fe87c0e1cc204ed48ad3b37840f39efc, type: 3}
      typeID: 114
      customType: 0
      isPPtrCurve: 1
    pptrCurveMapping:
    - {fileID: 21300000, guid: 061666c148498a34d878313b880eabaa, type: 3}
    - {fileID: 21300000, guid: 6a284826ff4da0649b190b33ca8a0ff8, type: 3}
    - {fileID: 21300000, guid: c8589940c9031c64abcd2f14abb5bbe4, type: 3}
    - {fileID: 21300000, guid: d53ccb928e6d82042a1e504798aa3091, type: 3}
    - {fileID: 21300000, guid: e7e60ae80a3940c45b26da5b6c87ff3b, type: 3}
    - {fileID: 21300000, guid: 27779c8ebac5b1d48b2f9ece4f409c25, type: 3}
    - {fileID: 21300000, guid: f0ca58925bfe0604d98335b95e735bef, type: 3}
    - {fileID: 21300000, guid: 4a63917cd4e101b4dafd300832557c02, type: 3}
    - {fileID: 21300000, guid: 674f0262126d4084f8a30136e4fb62f1, type: 3}
    - {fileID: 21300000, guid: 7bad2ec13013d014e9d9d82c5d5fe39a, type: 3}
    - {fileID: 21300000, guid: f4b71a15550220f4ba1e81db191e16da, type: 3}
  m_AnimationClipSettings:
    serializedVersion: 2
    m_AdditiveReferencePoseClip: {fileID: 0}
    m_AdditiveReferencePoseTime: 0
    m_StartTime: 0
    m_StopTime: 0.18333334
    m_OrientationOffsetY: 0
    m_Level: 0
    m_CycleOffset: 0
    m_HasAdditiveReferencePose: 0
    m_LoopTime: 1
    m_LoopBlend: 0
    m_LoopBlendOrientation: 0
    m_LoopBlendPositionY: 0
    m_LoopBlendPositionXZ: 0
    m_KeepOriginalOrientation: 0
    m_KeepOriginalPositionY: 1
    m_KeepOriginalPositionXZ: 0
    m_HeightFromFeet: 0
    m_Mirror: 0
  m_EditorCurves: []
  m_EulerEditorCurves: []
  m_HasGenericRootTransform: 0
  m_HasMotionFloatCurves: 0
  m_Events: []
